{
  "accessors": [
    {
      "bufferView": 1,
      "componentType": 5126,
      "count": 312,
      "max": [
        992.80462646484375,
        -145.06280517578125,
        15
      ],
      "min": [
        -972.12042236328125,
        -1703.97900390625,
        -0
      ],
      "type": "VEC3"
    },
    {
      "bufferView": 1,
      "byteOffset": 3744,
      "componentType": 5126,
      "count": 312,
      "max": [
        0.98147428035736084,
        0.9814339280128479,
        0.95516097545623779
      ],
      "min": [
        -0.94315391778945923,
        -0.94314283132553101,
        -0.99457675218582153
      ],
      "type": "VEC3"
    },
    {
      "bufferView": 0,
      "componentType": 5125,
      "count": 1824,
      "max": [
        311
      ],
      "min": [
        0
      ],
      "type": "SCALAR"
    },
    {
      "bufferView": 1,
      "byteOffset": 7488,
      "componentType": 5126,
      "count": 6150,
      "max": [
        952.663818359375,
        -185.74339294433594,
        748.2047119140625
      ],
      "min": [
        -933.79437255859375,
        -1664.213134765625,
        654.88287353515625
      ],
      "type": "VEC3"
    },
    {
      "bufferView": 1,
      "byteOffset": 81288,
      "componentType": 5126,
      "count": 6150,
      "max": [
        0.99995303153991699,
        0.99995303153991699,
        0.9999997615814209
      ],
      "min": [
        -0.99995303153991699,
        -0.99995303153991699,
        -1
      ],
      "type": "VEC3"
    },
    {
      "bufferView": 0,
      "byteOffset": 7296,
      "componentType": 5125,
      "count": 9864,
      "max": [
        6149
      ],
      "min": [
        0
      ],
      "type": "SCALAR"
    },
    {
      "bufferView": 1,
      "byteOffset": 155088,
      "componentType": 5126,
      "count": 1014,
      "max": [
        955.19329833984375,
        -182.09280395507812,
        746.919921875
      ],
      "min": [
        -935.90869140625,
        -1667.919921875,
        653.958984375
      ],
      "type": "VEC3"
    },
    {
      "bufferView": 1,
      "byteOffset": 167256,
      "componentType": 5126,
      "count": 1014,
      "max": [
        0.99988365173339844,
        0.97363895177841187,
        0.96041613817214966
      ],
      "min": [
        -0.99988365173339844,
        -0.97363895177841187,
        -0.9955630898475647
      ],
      "type": "VEC3"
    },
    {
      "bufferView": 0,
      "byteOffset": 46752,
      "componentType": 5125,
      "count": 6012,
      "max": [
        1013
      ],
      "min": [
        0
      ],
      "type": "SCALAR"
    },
    {
      "bufferView": 1,
      "byteOffset": 179424,
      "componentType": 5126,
      "count": 5687,
      "max": [
        1308.5947265625,
        34.740001678466797,
        770.11297607421875
      ],
      "min": [
        -1288.515869140625,
        -1885.2542724609375,
        14.97599983215332
      ],
      "type": "VEC3"
    },
    {
      "bufferView": 1,
      "byteOffset": 247668,
      "componentType": 5126,
      "count": 5687,
      "max": [
        0.99995303153991699,
        0.99978166818618774,
        1
      ],
      "min": [
        -0.99939084053039551,
        -0.99995863437652588,
        -1
      ],
      "type": "VEC3"
    },
    {
      "bufferView": 0,
      "byteOffset": 70800,
      "componentType": 5125,
      "count": 8772,
      "max": [
        5686
      ],
      "min": [
        0
      ],
      "type": "SCALAR"
    },
    {
      "bufferView": 1,
      "byteOffset": 315912,
      "componentType": 5126,
      "count": 168,
      "max": [
        1308.3125,
        34.456100463867188,
        774.97247314453125
      ],
      "min": [
        -1288.294189453125,
        -1884.9580078125,
        769.971923828125
      ],
      "type": "VEC3"
    },
    {
      "bufferView": 1,
      "byteOffset": 317928,
      "componentType": 5126,
      "count": 168,
      "max": [
        0.99379652738571167,
        0.99380046129226685,
        0.9192165732383728
      ],
      "min": [
        -0.98268640041351318,
        -0.98268640041351318,
        -0.99395072460174561
      ],
      "type": "VEC3"
    },
    {
      "bufferView": 0,
      "byteOffset": 105888,
      "componentType": 5125,
      "count": 972,
      "max": [
        167
      ],
      "min": [
        0
      ],
      "type": "SCALAR"
    }
  ],
  "asset": {
    "extras": {
      "author": "Zuo Modern (https://sketchfab.com/zuo)",
      "license": "CC-BY-NC-ND-4.0 (http://creativecommons.org/licenses/by-nc-nd/4.0/)",
      "source": "https://sketchfab.com/models/aaa9ca1379cf49118a24a8d119126ebe",
      "title": "Mayakoba Dining Table White - 703844"
    },
    "generator": "Sketchfab-3.18.7",
    "version": "2.0"
  },
  "bufferViews": [
    {
      "buffer": 0,
      "byteLength": 109776,
      "byteOffset": 0,
      "name": "floatBufferViews",
      "target": 34963
    },
    {
      "buffer": 0,
      "byteLength": 319944,
      "byteOffset": 109776,
      "byteStride": 12,
      "name": "floatBufferViews",
      "target": 34962
    }
  ],
  "buffers": [
    {
      "byteLength": 429720,
      "uri": "scene.bin"
    }
  ],
  "materials": [
    {
      "doubleSided": true,
      "emissiveFactor": [
        0,
        0,
        0
      ],
      "name": "white",
      "pbrMetallicRoughness": {
        "baseColorFactor": [
          0.70760100000000004,
          0.70760100000000004,
          0.70760100000000004,
          1
        ],
        "metallicFactor": 0,
        "roughnessFactor": 0.38815499999999997
      }
    },
    {
      "doubleSided": true,
      "emissiveFactor": [
        0,
        0,
        0
      ],
      "name": "black",
      "pbrMetallicRoughness": {
        "baseColorFactor": [
          0.0050976099999999998,
          0.0050976099999999998,
          0.0050976099999999998,
          1
        ],
        "metallicFactor": 1,
        "roughnessFactor": 0.74664600000000003
      }
    },
    {
      "doubleSided": true,
      "emissiveFactor": [
        0,
        0,
        0
      ],
      "name": "white2",
      "pbrMetallicRoughness": {
        "baseColorFactor": [
          0.97006800000000004,
          0.96765199999999996,
          0.95066700000000004,
          1
        ],
        "metallicFactor": 0,
        "roughnessFactor": 0.56425599999999998
      }
    },
    {
      "doubleSided": true,
      "name": "wire_086086086",
      "pbrMetallicRoughness": {
        "baseColorFactor": [
          0.71691899999999997,
          0.82403199999999999,
          0.83733900000000006,
          1
        ],
        "metallicFactor": 0.19046099999999999,
        "roughnessFactor": 0.36299785880000002
      }
    }
  ],
  "meshes": [
    {
      "primitives": [
        {
          "attributes": {
            "NORMAL": 1,
            "POSITION": 0
          },
          "indices": 2,
          "material": 0,
          "mode": 4
        }
      ]
    },
    {
      "primitives": [
        {
          "attributes": {
            "NORMAL": 4,
            "POSITION": 3
          },
          "indices": 5,
          "material": 1,
          "mode": 4
        }
      ]
    },
    {
      "primitives": [
        {
          "attributes": {
            "NORMAL": 7,
            "POSITION": 6
          },
          "indices": 8,
          "material": 1,
          "mode": 4
        }
      ]
    },
    {
      "primitives": [
        {
          "attributes": {
            "NORMAL": 10,
            "POSITION": 9
          },
          "indices": 11,
          "material": 2,
          "mode": 4
        }
      ]
    },
    {
      "primitives": [
        {
          "attributes": {
            "NORMAL": 13,
            "POSITION": 12
          },
          "indices": 14,
          "material": 3,
          "mode": 4
        }
      ]
    }
  ],
  "nodes": [
    {
      "children": [
        1
      ],
      "name": "RootNode (gltf orientation matrix)",
      "rotation": [
        -0.70710678118654746,
        -0,
        -0,
        0.70710678118654757
      ]
    },
    {
      "children": [
        2
      ],
      "name": "RootNode (model correction matrix)"
    },
    {
      "children": [
        3
      ],
      "name": "root"
    },
    {
      "children": [
        4
      ],
      "matrix": [
        1,
        0,
        0,
        0,
        0,
        2.2204460492503131e-16,
        1,
        0,
        0,
        -1,
        2.2204460492503131e-16,
        0,
        0,
        0,
        0,
        1
      ],
      "name": "GLTF_SceneRootNode"
    },
    {
      "children": [
        5
      ],
      "matrix": [
        1,
        0,
        -0,
        0,
        -0,
        0,
        -1,
        0,
        0,
        1,
        0,
        0,
        0,
        0,
        0,
        1
      ],
      "name": "RootNode (gltf orientation matrix)_0"
    },
    {
      "children": [
        6
      ],
      "name": "RootNode (model correction matrix)_1"
    },
    {
      "children": [
        7
      ],
      "name": "703844.obj.cleaner.materialmerger.gles_2"
    },
    {
      "children": [
        8,
        10,
        12,
        14,
        16
      ],
      "name": "Geode_8"
    },
    {
      "children": [
        9
      ],
      "name": "_3"
    },
    {
      "mesh": 0,
      "name": ""
    },
    {
      "children": [
        11
      ],
      "name": "_4"
    },
    {
      "mesh": 1,
      "name": ""
    },
    {
      "children": [
        13
      ],
      "name": "_5"
    },
    {
      "mesh": 2,
      "name": ""
    },
    {
      "children": [
        15
      ],
      "name": "_6"
    },
    {
      "mesh": 3,
      "name": ""
    },
    {
      "children": [
        17
      ],
      "name": "_7"
    },
    {
      "mesh": 4,
      "name": ""
    }
  ],
  "scene": 0,
  "scenes": [
    {
      "name": "OSG_Scene",
      "nodes": [
        0
      ]
    }
  ]
}

